<?xml version="1.0" encoding="utf-8"?>
<!-- Generator: Adobe Illustrator 26.1.0, SVG Export Plug-In . SVG Version: 6.00 Build 0)  -->
<svg version="1.1" id="Calque_1" xmlns="http://www.w3.org/2000/svg" xmlns:xlink="http://www.w3.org/1999/xlink" x="0px" y="0px"
	 viewBox="0 0 350 80" style="enable-background:new 0 0 350 80;" xml:space="preserve">
<style type="text/css">
	.st0{opacity:0.3;enable-background:new    ;}
	.st1{fill:#0BA100;}
</style>
<rect x="13.2" y="61" class="st0" width="322.1" height="2"/>
<g>
	<path class="st1" d="M32.4,13.9l-3.2,3.2c-1.1-1.1-3-1.7-4.4-1.7c-3.5,0-5.9,2.4-5.9,6.3c0,2.9,1.7,5.6,5.9,5.6
		c1.7,0,2.9-0.6,3.7-1.2v-2.4h-4.2v-4.5h8.8v8.8c-1.9,2.4-4.4,3.9-8.3,3.9c-7.5,0-10.9-4.9-10.9-10.1c0-5.4,3.2-10.9,10.9-10.9
		C27.5,10.8,30.3,11.8,32.4,13.9z M58.1,11.1c5,0.1,7.7,3.2,7.6,6.9c0,2.5-0.8,5.3-4.4,6.5l5.6,6.9h-6.6l-4.7-6.3h-2.6v6.3h-5V11.1
		H58.1z M53.1,20.7h5.1c1.9,0,2.6-1.5,2.6-2.4c0-1.2-0.8-2.4-2.7-2.4h-5V20.7z M85.2,15.8V19h9v4.6h-9v3.2H95v4.6H80.2V11.1h14.6
		v4.6H85.2z M114.9,15.8V19h9v4.6h-9v3.2h9.7v4.6h-14.8V11.1h14.6v4.6H114.9z M152.8,31.5l-8.2-11.6v11.6h-5V11.1h4.6l7.8,11v-11h5
		v20.3H152.8z"/>
	<path d="M198.6,11.1c3.9,0,6.6,2.3,6.6,5.6c0,1.8-1,3.5-2.8,4.3c2.1,0.7,3.4,2.4,3.4,4.8c0,4.1-3.2,5.7-7.3,5.7h-8.6V11.1H198.6z
		 M193.2,19.5h5c2.1,0,3.6-0.7,3.6-2.6c0-1.9-1.5-2.8-3.5-2.8h-5.1V19.5z M193.2,28.4h5.3c2.2,0,4-0.6,4-2.9c0-2.1-1.7-3.1-4.2-3.1
		h-5V28.4z M229.9,11.1c4.7,0,7.1,3.2,7.1,6.6c0,2.9-1.5,5.7-5.5,6.4l6.4,7.3h-4.3l-5.9-7h-4.1v7h-3.3V11.1H229.9z M223.7,21.5h6.1
		c2.7,0,3.9-1.7,3.9-3.7c0-1.8-1.2-3.6-3.8-3.6h-6.2V21.5z M255.2,27.3l-1.7,4.1H250l8.9-20.3h3.2l8.7,20.3h-3.6l-1.7-4.1H255.2z
		 M260.4,15l-3.9,9.3h7.8L260.4,15z M299,31.5l-10.6-14.6v14.6h-3.3V11.1h3l10.4,14.3V11.1h3.3v20.3H299z M325.2,11.1
		c6.9,0,10.2,4.8,10.2,9.9c0.1,5.3-3.1,10.4-10.2,10.4h-7.7V11.1H325.2z M320.7,28.3h4.4c5,0,7-3.7,7-7.2c-0.1-3.4-2.1-6.8-7-6.8
		h-4.4V28.3z"/>
</g>
</svg>
